{
	"agcgw":{
		"backurl":"connect-drcn.dbankcloud.cn",
		"url":"connect-drcn.hispace.hicloud.com"
	},
	"client":{
		"cp_id":"890086000102141694",
		"product_id":"9105385871707853970",
		"client_id":"383177176712741888",
		"client_secret":"AC8822D607905FE1DEC3F08DFEC038EE611D0525DC6B2E04581F13B43663465C",
		"app_id":"100316239",
		"package_name":"zhixin.cn.com.happyfarm_user",
		"api_key":"CV8KyMZFBk/KlT3eqGqM1zuWUmXKBiJAOQb3IEtRE+VSoY8q7Vmo5ACJqNrSvzZ47tg3oayIqlixSNQ813FyjwGE58BV"
	},
	"service":{
		"analytics":{
			"collector_url":"datacollector-drcn.dt.hicloud.com,datacollector-drcn.dt.dbankcloud.cn",
			"resource_id":"p1",
			"channel_id":""
		},
		"cloudstorage":{
			"storage_url":"https://agc-storage-drcn.platform.dbankcloud.cn"
		},
		"ml":{
			"mlservice_url":"ml-api-drcn.ai.dbankcloud.com,ml-api-drcn.ai.dbankcloud.cn"
		}
	},
	"region":"CN",
	"configuration_version":"1.0"
}